South Australia,,,,
Organisation Name,Address,Suburb,State/Terr,Post Code
Chemist Warehouse Adelaide - Gouger Street,Ground Floor 57A Gouger Street,Adelaide,SA,5000
Chemist Warehouse Adelaide - Pulteney Street,160 Rundle Mall,Adelaide,SA,5000
Chemist Warehouse Adelaide Myer Centre,MCA#720 T023 Myer Centre 22-42 Rundle Mall,Adelaide,SA,5000
Chemist Warehouse Gawler Place Adelaide,41 Gawler Place,Adelaide,SA,5000
HPS Pharmacies St Andrews,350 South Terrace,Adelaide,SA,5000
National Pharmacies Adelaide,"Ground Level, 52 Gawler Place",Adelaide,SA,5000
National Pharmacies Norwood,156 The Parade,Adelaide,SA,5067
Priceline Pharmacy Adelaide City,"LG06 Adelaide Central Plaza, 100 Rundle Mall",Adelaide,SA,5000
Star Discount Chemist Hutt Street,192 Hutt Street,Adelaide,SA,5000
Terry White Chemmart Rundle Mall,151 Rundle Mall,Adelaide,SA,5000
Terry White Chemmart Rundle Place,"Shop LG, 12 Rundle Place, 77-91 Rundle Mall",Adelaide,SA,5000
TerryWhite Chemmart Chinatown Plaza,"Shop 6-9, 61 Grote Street",Adelaide,SA,5000
TerryWhite Chemmart Royal Adelaide Hospital Pharmacy,"Royal Adelaide Hospital, Retail 4, Level 3, Port Road",Adelaide,SA,5000
Pharmasave Alberton Pharmacy,33 Fussell Place,Alberton,SA,5014
Aldgate Pharmacy,Shop 1B 232 Mt Barker Road,Aldgate,SA,5054
TerryWhite Chemmart Aldinga,Shop 1 Lot 1 Main South Road,Aldinga,SA,5173
Aldinga Medical Centre Pharmacy,Unit 189 Rowley Rd,Aldinga Beach,SA,5173
National Pharmacies Aldinga Beach,"Shop 12A Aldinga Central Shopping Centre, Cnr Pridham Boulevard and Aldinga Beach Road",Aldinga Beach,SA,5173
Tim Siv's TerryWhite Chemmart Angaston,44A Murray Street,Angaston,SA,5353
Ardrossan Pharmacy,2/25 First St,Ardrossan,SA,5571
National Pharmacies Ascot Park,"Ascot Park Shopping Centre, 629 Marion Road",Ascot Park,SA,5043
Chemist Warehouse Athelstone,"Shop 20 to 24, 320 Gorge Road",Athelstone,SA,5072
Clare Valley Family Pharmacy,24 Main North Road,Auburn,SA,5451
Balaklava Chemplus Pharmacy,1 Wallace St,Balaklava,SA,5461
Barmera Pharmacy,20 Barwell Ave,Barmera,SA,5345
Flinders Medical Centre (SA Pharmacy SALHN),"Flinders Medical Centre Pharmacy L3, Flinders Drive",Bedford Park,SA,5042
Belair Compounding Pharmacy,"Shop 1&2, 6-10 Main Road",Belair,SA,5052
Advantage Pharmacy Berri,"Shop 3, 9 Vaughan Court",Berri,SA,5343
Riverland Plaza Pharmacy,"Shop 8, Kay Ave",Berri,SA,5343
Chemist Warehouse Norwood,206 to 208 The Parade,Beulah Park,SA,5067
Midwest Pharmacy,678 Port Road,Beverley,SA,5009
Birdwood Pharmacy,"Shop 5, 20 Shannon St",Birdwood,SA,5234
National Pharmacies Blackwood,241 Main Road,Blackwood,SA,5051
Terry White Chemmart Woolworths Shopping Centre Blackwood,376 Shepherds Hill Road,Blackwood,SA,5051
The Green Dispensary Blackwood,202 Main Road,Blackwood,SA,5051
Birks Medical Centre Pharmacy,506 Main North Road,Blair Athol,SA,5084
Blakeview Pharmacy,2A Mansfield Parade,Blakeview,SA,5114
United Chemists Blakes Crossing,Shop 7 63-83 Main Terrace Woolworths Blakes Crossing Market Place,Blakeview,SA,5114
Blanchetown Pharmacy,24 Egerton Street,Blanchetown,SA,5357
Mid North Pharmacies Booleroo Centre,11A Stephens St,Booleroo Centre,SA,5482
Chem-Health Pharmacy,Shop 3/82 Dorothy Street,Brahma Lodge,SA,5109
Brighton Day Night Pharmacy,479 Brighton Road,Brighton,SA,5048
National Pharmacies Brighton,424 Brighton Road,Brighton,SA,5048
Terrywhite Chemmart Brighton South,"Shop 10, 525 Brighton Road",Brighton,SA,5048
Tim Siv's TerryWhite Chemmart Burra,4 Market Sq,Burra,SA,5417
Pharmacy at Campbelltown,2/608 Lower North East Road,Campbelltown,SA,5074
Ceduna Pharmacy,33 Poynton St,Ceduna,SA,5690
Flaxmill Road Guardian Pharmacy,Shop 1303 Flaxmill Rd,Christie Downs,SA,5164
Chemplus Christies Beach,45 Beach Road,Christies Beach,SA,5165
Christies Guild Pharmacy,106 Beach Rd,Christies Beach,SA,5165
National Pharmacies Christies Beach,"Christies Beach Shopping Centre, 70 Beach Road",Christies Beach,SA,5165
O'Sullivan Beach Pharmacy,4/100 Gulfview Road,Christies Beach,SA,5165
Clare Pharmacy,260 Main North Road,Clare,SA,5453
Tim Siv's Terry White Chemmart Clare,261 Main North Road,Clare,SA,5453
Cleve District Pharmacy Pty Ltd,31 Main St,Cleve,SA,5640
Chemist Warehouse Clovelly Park,Shop 2 1156-1158 South Road,Clovelly Park,SA,5042
Collinswood Star Discount Chemist,37 North Road,Collinswood,SA,5081
Chemist King Colonel Light Gardens,501 Goodwood Road,Colonel Light Gardens,SA,5041
Coober Pedy Pharmacy,"Shop 1, Lot 171 Hutchinson Street",Coober Pedy,SA,5723
Cowell Pharmacy,20-22 Main St,Cowell,SA,5602
Craigmore North Pharmacy,Shop 1/2 Zurich Rd,Craigmore,SA,5114
National Pharmacies Craigmore,"Shops 10,11 & 12 Craigmore Shopping Centre Yorktown Road",Craigmore,SA,5114
Croydon FamilyCare Pharmacy,Shop 14/113-131 Days Road,Croydon Park,SA,5008
Crystal Brook Pharmacy,26 Bowman Street,Crystal Brook,SA,5523
National Pharmacies Cumberland Park,380 Goodwood Road,Cumberland Park,SA,5041
Terry White Chemmart Cumberland Park,"Shop 5& 6, 350 Goodwood Road",Cumberland Park,SA,5041
Darlington Pharmacy,62A Seacombe Rd,Darlington,SA,5047
United Chemists Darlington,1513-1517 Main South Road,Darlington,SA,5047
Fields Gordon Pharmacy,"Shop 6, 130 Peachey Road",Davoren Park,SA,5113
Gordon Pharmacy,45 Peachey Road,Davoren Park,SA,5113
Repat Health Precinct Pharmacy,"Repat Health Precinct Pharmacy, Building 12, 216 Daws Rd",Daw Park,SA,5041
Dernancourt Pharmacy,"Shop 21, 840 Lower North East Road",Dernancourt,SA,5075
Dulwich Pharmacy,14 Stuart Rd,Dulwich,SA,5065
Blooms the Chemist Castle Plaza,Shop 4-7 Castle Plaza 992 South Rd,Edwardstown,SA,5039
Chemist Warehouse Elizabeth,MM03 Elizabeth City Centre 50 Elizabeth Way,Elizabeth,SA,5112
DASSA Northern,22 Langford Drive,Elizabeth,SA,5112
National Pharmacies Elizabeth,"Elizabeth City Centre, Shop 95c 50 Elizabeth Way",Elizabeth,SA,5112
Priceline Pharmacy Elizabeth,"50 Elizabeth Way, Shop 75 Elizabeth Shopping Centre",Elizabeth,SA,5112
Ian F Gordon Pharmacy,Shop 126-34 Hamblynn Road,Elizabeth Downs,SA,5113
PharmaSave Elizabeth Pharmacy,Shop 555 Spruance Rd,Elizabeth East,SA,5112
United Chemists Elizabeth Vale,"46 John Rice Ave,",Elizabeth Vale,SA,5112
Lyell McEwin Hospital SA Pharmacy,Haydown Road,Elizabeth Vale,SA,5112
Elliston Pharmacy,8 Memorial Drive,Elliston,SA,5670
Tim Siv's TWCM Eudunda,23 Bruce Street,Eudunda,SA,5374
Chemist Outlet Gawler,"Gawler Green Shopping Centre  Shop 13, 4 Tulloch Rd",Evanston,SA,5116
Ridley Grove Pharmacy,Shop 1/125 Ridley Grove,Ferryden Park,SA,5010
Findon Rightprice Pharmacy,125 Findon Rd,Findon,SA,5023
National Pharmacies Findon,Findon Shopping Centre 303 Grange Road,Findon,SA,5023
Terry White Chemmart Findon,186-200 Findon Road,Findon,SA,5023
Priceline Pharmacy Firle,4/151 Glynburn Road,Firle,SA,5070
Star Discount Chemist Firle,"Shop T25 Firle Plaza, 171 Glynburn Road",Firle,SA,5070
Chemist Warehouse Ashford,62-64 Maple Avenue,Forestville,SA,5035
Freeling Pharmacy,2/2-4 Hanson St,Freeling,SA,5372
Chemist King Frewville,Shop 4/177 Glen Osmond Rd,Frewville,SA,5063
Terry White Chemmart Fulham,2/520 Henley Beach Rd,Fulham,SA,5013
Fulham Better Health Pharmacy,"Shop 6, 447 Tapleys Hill Road",Fulham Gardens,SA,5024
Priceline Pharmacy Arkaba,7/180 Glen Osmond Road,Fullarton,SA,5063
Gawler Pharmacy,21 Adelaide Rd,Gawler,SA,5118
Health E Advice Chemist,Shop 31 Commercial Lane,Gawler,SA,5118
National Pharmacies Gawler,"Shop L, Gawler Central Shopping Centre Cnr of Cowan St and Murray St",Gawler,SA,5118
Terry White Chemists Gawler,94 Murray Street,Gawler,SA,5118
RPS Adelaide Clinic - Pharmacy Dept.,33 Park Terrace,Gilberton,SA,5081
Gilles Plains SCA Pharmacy Pty Ltd,"Shop 18, 575 North East Road, Gilles Plains Shopping Centre",Gilles Plains,SA,5086
Gladstone Pharmacy,24 Gladstone Street,Gladstone,SA,5473
Blooms The Chemist Glenelg,95 Jetty Rd,Glenelg,SA,5045
Chemist Warehouse Glenelg,88 Jetty Rd,Glenelg,SA,5405
Glenelg 7 Day Pharmacy,92 Jetty Road,Glenelg,SA,5045
National Pharmacies Glenelg,83 Jetty Road,Glenelg,SA,5045
TerryWhite Chemmart Glenelg East Day Night Pharmacy,1 Cliff Street,Glenelg East,SA,5045
TerryWhite Chemmart Morphettville,520 Anzac Highway,Glenelg East,SA,5045
Glenelg Community Pharmacy,Shop 3-5 101-103 Partridge St,Glenelg South,SA,5045
Glenside Late Night Pharmacy,322 Greenhill Road,Glenside,SA,5065
The Village Pharmacy,"Shops 7-9  Burnside Village, 447 Portrush Road",Glenside,SA,5065
Glenside Health Services Pharmacy,Pharmacy Department - Glenside Health Services 2 Karrayarta Drive,Glenside,SA,5065
Glenunga 7 Day Pharmacy,"Shop 7, 535-561 Portrush Road",Glenunga,SA,5064
National Pharmacies Glenunga,297 Glen Osmond Road,Glenunga,SA,5064
Golden Grove Medical Center Pharmacy,Tenancy B2 205 The Golden Way,Golden Grove,SA,5125
National Pharmacies Golden Grove,"Shop 74, Golden Grove Village The Golden Way",Golden Grove,SA,5125
Priceline Pharmacy The Grove,"shop mm02, The Grove Shopping centre, corner The Grove way and The Golden way",Golden Grove,SA,5125
Goodwood Pharmacy,148 Goodwood Road,Goodwood,SA,5034
Priceline Pharmacy Goolwa,20 Cadell Street,Goolwa,SA,5214
Grange Pharmacy,312 Military Rd,Grange,SA,5022
National Pharmacies Greenacres,Greenacres Shopping Centre 132 Muller Road,Greenacres,SA,5086
Priceline Pharmacy Greenacres,"Shop 11, 12a cnr Muller, Northeast Rd",Greenacres,SA,5086
Greenwith Pharmacy,2/222 Target Hill Road,Greenwith,SA,5125
Hackham Pharmacy,1/77a Collins Pde,Hackham,SA,5163
TerryWhite Chemmart Hahndorf,"1B, 48-50 Mount Barker Road",Hahndorf,SA,5245
Hallett Cove Pharmacy,U8/1 Zwerner Dr Professional Centre,Hallett Cove,SA,5158
Chemistsavers Hampstead Gardens,Shop 5-6/259 North East Road,Hampstead Gardens,SA,5086
Happy Valley Chemmart Pharmacy,Shop 1 Kenihans Road,Happy Valley,SA,5159
Hazelwood Park Pharmacy,537 Glynburn Rd,Hazelwood Park,SA,5066
Chemist King Hectorville,84 Glynburn Road,Hectorville,SA,5075
TerryWhite Chemmart Hallett Cove,45 Lonsadale Rd Hallett Cove Shopping Centre,Hellett Cove,SA,5158
National Pharmacies Henley Beach,19 Henley Beach Road,Henley Beach,SA,5022
Western Hospital Pharmacy,168 Cudmore Tce,Henley Beach,SA,5022
Hewett pharmacy SA pty ltd,Shop 3b/1 Kingfisher Drive,Hewett,SA,5118
Good Price Pharmacy Warehouse Hillcrest,T2 483  North East Road,Hillcrest,SA,5086
Oakden Pharmacy,19-21/132-134 Fosters Road,Hillcrest,SA,5086
Terry White Chemmart Hilton,160 Sir Donald Bradman Drive,Hilton,SA,5033
Hindmarsh Pcy,328-334 Port Rd,Hindmarsh,SA,5007
Holden Hill Pharmacy Pty Ltd,5/746 North East Rd,Holden Hill,SA,5088
Pharmacy 390 Brighton,390 Brighton Road,Hove,SA,5048
Terry White Chemmart Hove,"7 8, 345 Brighton Road",Hove,SA,5048
Huntfield Heights Pharmacy,"Shop 1A, 236-248 Honeypot Road",Huntfield Heights,SA,5163
National Pharmacies Ingle Farm,"Shop 2, 15 Roopena Street",Ingle Farm,SA,5098
Priceline Pharmacy Ingle Farm,"Shop 2009, Ingle Farm Shopping Centre, Cnr Montague & Walkleys Rd",Ingle Farm,SA,5098
National Pharmacies Ingle Farm Plaza,"Shop 2058A, Ingle Farm Shopping Centre, Corner Walkley & Montague Rds",Ingle Farm,SA,5098
Mid North Pharmacies Jamestown,53 Ayr St,Jamestown,SA,5491
Copper Coast Pharmacist Advice,Unit 1 77-79 Port Rd,Kadina,SA,5554
Newbery Chemists Kadina,24 Graves St,Kadina,SA,5554
Tim Siv's TWCM Kapunda,33-35 Main Street,Kapunda,SA,5373
National Pharmacies Kensington Park,392 Magill Road,Kensington Park,SA,5068
Kidman Park Pharmacy,"Shop 3, 376 Grange Road",Kidman Park,SA,5025
Chemist Warehouse Kilburn,400 Prospect Rd,Kilburn,SA,5084
Churchill Centre Pharmacy,"Shops 22-23 Churchill Centre, 400 Churchill Road",Kilburn,SA,5084
Pharmsave Arndale Pharmacy,"Shop SP093, Armada Arndale, 470 Torrens Road",Kilkenny,SA,5009
Star Discount Chemist Kilkenny,"Shop 4, Armada Arndale Shopping Centre, 470 Torrens Rd",Kilkenny,SA,5009
Kimba Pharmacy,46 High Street,Kimba,SA,5641
Kings Park Community Pharmacy,5/311 Goodwood Road,Kings Park,SA,5034
TerryWhite Chemmart Kangaroo Island,15 Murray St,Kingscote,SA,5223
Kingston Pharmacy,17 Agnes Street,Kingston SE,SA,5275
Chemist King Klemzig,280 North East Road,Klemzig,SA,5087
Kurralta Park TerryWhite Chemmart,Shop 4/153 Anzac Hwy,Kurralta Park,SA,5037
Laura Pharmacy,25 Herbert Street,Laura,SA,5480
Star Discount Chemist Hampstead Rd,Shop 1199-200 Hampstead Rd,Lightsview,SA,5085
National Pharmacies Littlehampton,Shop 187 Old Princes Highway,Littlehampton,SA,5250
Lobethal Community Pharmacy,55 Main St,Lobethal,SA,5241
Customcare Compounding Pharmacy,392 Henley Beach Rd,Lockleys,SA,5032
Loxton Pharmacies P/L (Anzac Cres),13 Anzac Crescent,Loxton,SA,5333
Loxton Pharmacies P/L (East Tce),6 East Tce,Loxton,SA,5333
Lyndoch St Mary Pharmacy,24 Barossa Valley Way,Lyndoch,SA,5351
Star Discount Chemist Magill,5&6/591 Magill Road,Magill,SA,5072
Maitland Pharmacy,16 Robert St,Maitland,SA,5573
Mannum Pharmacy Pty Ltd T/A TerryWhite Chemmart Mannum Green,"Shop 7, Mannum Green Shopping Centre, 67-75 Adelaide Road",Mannum,SA,5238
Mannum Riverside Pharmacy Pty Ltd T/A TerryWhite Chemmart Mannum Riverside,86-88 Randell St,Mannum,SA,5238
Marden Pharmacy,"Marden Shopping Centre, 9-21 Lower Portrush Rd",Marden,SA,5070
National Pharmacies Marden,Marden Shopping Centre 1 Lower Portrush Road,Marden,SA,5070
TerryWhite Chemmart Marion Compounding,746 Marion Road,Marion,SA,5043
North Plympton Pharmacy,"Shop 2, 267-269 Marion Road",Marleston,SA,5033
Marryatville Chemmart Pharmacy,"Shop 2, 242-248 Kensington Road",Marryatville,SA,5068
Mawson Place Pharmacy,"Shop 2, Capital Street Shopping Centre, 8-12 Capital Street",Mawson Lakes,SA,5095
TerryWhite Chemmart Mawson Central,"Shop 3-5 Mawson Central, 9-15 Main Street",Mawson Lakes,SA,5095
McLaren Vale Pharmacy,"Tenancy 17, 130 Main Road",McClaren Vale,SA,5171
Meadows Community Pharmacy,U1/59 Mawson Road,Meadows,SA,5201
Edward Street Allcare Pharmacy,161 Edward Street,Melrose Park,SA,5039
Meningie Pharmacy,48 Princes Highway,Meningie,SA,5264
Middleton Pharmacy,"Tenancy A No 17, Goolwa Road,",Middleton,SA,5213
South Road Pharmacy,234 South Road,Mile End,SA,5031
Millicent Chemist and Giftware,77 George St,Millicent,SA,5280
Minlaton Pharmacy,40 Main Street,Minlaton,SA,5575
Mitchell Park Pharmacy,867 Marion Road,Mitchell Park,SA,5043
Chemist Warehouse Moana,"Shop 6 , 750 Babbacombe Dr",Moana,SA,5169
Chemist Warehouse Modbury Triangle SC,"Shop 36, 962-964 North East Road",Modbury,SA,5092
Chemist Warehouse Tea Tree Plaza,"Shop 207 208 Westfield Tea Tree Plaza, 976 North East Road",Modbury,SA,5092
Modbury DayNite Pharmacy,"Shop 1, 926 North East Road",Modbury,SA,5092
Modbury Hospital SA Pharmacy,41-69 Smart Road,Modbury,SA,5092
Modbury Triangle Pharmacy,"Modbury Triangle Shopping Centre, 954 North East Rd",Modbury,SA,5092
National Pharmacies Clovercrest,"Shop 8 Clovercrest Plaza, Cnr Kelly and Montague Roads",Modbury,SA,5092
National Pharmacies Modbury,"Tea Tree Plus, 10/1020 North East Road",Modbury,SA,5092
Priceline Pharmacy Tea Tree Plaza,Shop 33 Lower level Tea Tree SC976 North East Road,Modbury,SA,5092
TerryWhite Chemmart Paragon,97 - 105 Smart Road,Modbury,SA,5092
Newbery Chemists Moonta,8 George St,Moonta,SA,5558
Morgan Centre Pharmacy,10 Fourth St,Morgan,SA,5320
Chemist King Morphett Vale,1 Doctors Rd,Morphett Vale,SA,5162
DASSA Southern,209 Main South Road,Morphett Vale,SA,5162
Good Price Pharmacy Warehouse Morphett Vale,378 Main South Road,Morphett Vale,SA,5162
National Pharmacies Morphett Vale,188A Main South Road,Morphett Vale,SA,5162
Star Discount Chemist Morphett Vale,"Star Discount Chemmist Morphett Valeshop 10/11, 201 Main South Road",Morphett Vale,SA,5162
Star Discount Chemist Southbound,"Shop 4, Morphett Vale Shopping Centre, 146-162 Main South Rd",Morphett Vale,SA,5162
United Chemists Southgate Plaza,Shop 8 Southgate Plaza Sherriffs Road,Morphett Vale,SA,5162
Amcal Aston Hills Mount Barker,"T14, Aston Hills Shopping Centre, 485 Heysen Boulevard",Mount Barker,SA,5251
National Pharmacies Mount Barker,"Shop 5 Barker Plaza, Corner Hutchinson and Morphett Roads",Mount Barker,SA,5251
TerryWhite Chemmart Mount Barker Village,"Shop 1, Mt Barker Village Shopping Centre, 2 Victoria Crescent",Mount Barker,SA,5251
TerryWhite Chemmart Mt Barker South,239 Wellington St,Mount Barker,SA,5251
Chemist King Mount Gambier,"Tenancy B, 166 Jubilee Highway West",Mount Gambier,SA,5290
Gambier City Chemmart Pharmacy,"Shop 18/19, Central Shopping Centre, 21 Helen St",Mount Gambier,SA,5290
Gambier Village Pharmacy,Shop 4 / 3 Buronga Avenue,Mount Gambier,SA,5290
Priceline Mount Gambier,41 Commercial Street West,Mount Gambier,SA,5290
Priceline Pharmacy Market Place,"Mount Gambier Market Place Shopping Centre, 33/182 Penola Road",Mount Gambier,SA,5290
Star Discount Chemist Sturt Street,Shop 611 Ferrers Street,Mount Gambier,SA,5290
Star Discount Pharmacy Mt Gambier,"Shop 3, 145 Commercial Street East",Mount Gambier,SA,5290
"UFS Chemist, Mount Gambier",49-51 Commercial Street East,Mount Gambier,SA,5290
Mount Pleasant Pharmacy,108 Melrose St,Mount Pleasant,SA,5235
Terry White Chemists Mt Barker Central,Shop 21/22 Mt Barker Central Shopping Centre McLaren St,Mt Barker,SA,5251
Mt Compass Pharmacy,Shop 430-34 Victor Harbor Road,Mt Compass,SA,5210
Chemist King Murray Bridge,"16-19/1 Swanport Rd, Murray Bridge Green Shopping Centre",Murray Bridge,SA,5253
Chemist Warehouse Murray Bridge,Building B165 Adelaide Rd,Murray Bridge,SA,5253
Priceline Pharmacy Murray Bridge,"Shop T5 Murray Bridge Marketplace, 23-51 South Tce",Murray Bridge,SA,5253
TerryWhite Chemmart Murray Bridge,58 Bridge St,Murray Bridge,SA,5253
Nairne Pharmacy,Shop 4121 Old Princes Highway,Nairne,SA,5252
Kincraig Terry White Chemmart,110 Smith Street,Naracoorte,SA,5271
National Pharmacies Newton,Shop 6 Newton Village Shopping Centre 60-64 Gorge Road,Newton,SA,5074
Terry White Chemart  Newton,"Shop 6 & 7, Newton Central Shopping Centre 84 Gorge Road",Newton,SA,5074
Chemist Warehouse Colonnades Shopping Centre,Shop SP011 Colonnades Shopping Centre 54 Beach Road,Noarlunga,SA,5168
Noarlunga Hospital (SA Pharmacy SALHN),Alexander Kelly Drive,Noarlunga Centre,SA,5168
TerryWhite Chemmart Colonnades,Shop 179 Colonnades Shopping Centre,Noarlunga Centre,SA,5168
Normanville Chemplus,85 Main Road,Normanville,SA,5204
Melbourne Street Pharmacy,Shop 1160 Melbourne St,North Adelaide,SA,5006
National Pharmacies North Adelaide,56 O'Connell Street,North Adelaide,SA,5006
Priceline Pharmacy North Haven,"Shop 16 North Haven Shopping Centre, Osborne Rd",North Haven,SA,5016
Chemist Warehouse Northfield,329 Hampstead Rd,Northfield,SA,5085
Hampstead Medical Centre Pharmacy,Shop 5/237 Hampstead Road,Northfield,SA,5085
Norwood Village Pharmacy,201-203 The Parade,Norwood,SA,5067
Priceline Pharmacy Norwood,"Shop 12, 161-169 The Parade",Norwood,SA,5067
TerryWhite Chemmart Norwood,116 The Parade,Norwood,SA,5067
Novar Gardens Terry White Chemmart,126 Morphett Road,Novar Gardens,SA,5040
The Barossa Pharmacist In The Main Street,37 Murray Street,Nuriootpa,SA,5355
The Barossa Pharmacist In The Mall,10/1 Murray Street,Nuriootpa,SA,5355
Priceline Pharmacy Marion,"297 Diagonal Rd, Shop 2057 Westfield Marion Shopping Town",Oaklands Park,SA,5046
Terry White Marion Shopping Centre,1137-38 Westfield Marion 297 Diagonal Rd,Oaklands Park,SA,5046
United Chemists Marion Domain,453 Morphett Road,Oaklands Park,SA,5046
United Chemists Mini Warehouse Marion,"Shop 1070, 297 Diagonal Rd Westfield Marion Shopping Town",Oaklands Park,SA,5046
Priceline Pharmacy O'Halloran Hill,79 Main South Road,O'Halloran Hill,SA,5158
Valueplus Discount Pharmacy Old Reynella,167 Old South Rd,Old Reynella,SA,5161
Orroroo Pharmacy,16 Second Street,Orroroo,SA,5431
Para Hills Pharmacist Advice,"Shop D Para Hills Town Centre, Wilkinson Rd",Para Hills,SA,5096
United Chemists Para Hills,513 Bridge Rd,Para Hills,SA,5096
TerryWhite Chemmart Mcintyre Medical Centre,33 Mcintyre Road,Para Hills West,SA,5096
United Chemists Para Vista,"Shop 10 Para Vista Shopping Centre, Nelson Rd",Para Vista,SA,5093
Windsor Village Pharmacy,67A Darley Road,Paradise,SA,5085
Dang Pharmacy,237 Martins Road,Parafield Gardens,SA,5107
TerryWhite Chemmart Parafield Plaza,"Shop 4, 482 Salisbury Hwy",Parafield Gardens,SA,5107
United Chemists Paralowie,Shop 15 / 337 Whites Road,Paralowie,SA,5108
Star Discount Chemist Park Holme,"Shop 5 Park Holme Shopping Centre, 319 Oaklands Rd",Park Holme,SA,5043
Star Discount Chemist Pasadena (SA),"Pasadena Shopping Centre, Fiveash Drive,",Pasadena,SA,5042
Pennington Guardian Pharmacy,1 Addison Rd,Pennington,SA,5013
Penola Pharmacy,38 Church Street,Penola,SA,5277
Peterborough Pharmacy,211 Main St,Peterborough,SA,5422
Priceline Pharmacy Plympton,392 Marion Road,Plympton,SA,5038
Plympton Park Pharmacy,486 Marion Road,Plympton Park,SA,5038
Harmony Compounding Pharmacy,"Shop 6A, 2 Montague Rd Montague Farm Shopping Centre",Pooraka,SA,5095
Star Discount Chemist Pooraka,803 Main North Rd,Pooraka,SA,5095
Chemist Warehouse Port Adelaide,"Tenancy 25 Port Mall Shopping Centre, 168-180 St Vincent Street",Port Adelaide,SA,5015
Terrywhite Chemmart Port Adelaide Plaza,"Shop 28, 200-220 Commercial Road",Port Adelaide,SA,5015
TerryWhite Chemmart Trinity Medical Centre,27 College Street,Port Adelaide,SA,5015
United Chemists Port Augusta,"Shops 9-11, 100 Carlton Parade",Port Augusta,SA,5700
Good Price Pharmacy Warehouse Port Augusta,9 Commercial Road,Port Augusta,SA,5700
United Chemists Wharflands,"Shop 3, Wharflands Plaza, Tassie Street,",Port Augusta,SA,5700
United Chemists Westside,25 Loudon Rd,Port Augusta West,SA,5700
United Chemists Port Broughton,32 Mckay Street,Port Broughton,SA,5522
National Pharmacies Port Lincoln,"Shop 2, 90-104 Liverpool Street",Port Lincoln,SA,5606
Priceline Pharmacy Port Lincoln,16 Porter Street,Port Lincoln,SA,5606
Terry White Chemists Port Lincoln,43 Liverpool Street,Port Lincoln,SA,5606
Port Macdonnell Pharmacy,43a Meylin Street,Port Macdonnell,SA,5291
National Pharmacies Port Pirie,103 Florence Street,Port Pirie,SA,5540
Priceline Pharmacy Port Pirie,85-93 Florence St,Port Pirie,SA,5540
Risdon Pharmacy,186 Balmoral Road,Port Pirie,SA,5540
TerryWhite Chemmart Port Pirie,Shop 1991-95 Grey Tce,Port Pirie,SA,5540
Port  Vincent Pharmacy,4 B Main Street,Port Vincent,SA,5581
Port Wakefield Pharmacy,22A Burra Street,Port Wakefield,SA,5550
Prospect Day/Night Pharmacy,211 Churchill Rd,Prospect,SA,5082
Prospect Guardian Pharmacy,188 Main North Road,Prospect,SA,5082
Star Discount Chemist Northpark,Shop 15 Northpark Shopping Centre 262 Main North Road,Prospect,SA,5082
Star Discount Chemist Prospect,113 Prospect Road,Prospect,SA,5082
Quorn Pharmacy,3 Sixth Street,Quorn,SA,5433
Priceline Pharmacy Renmark,10-12 Renmark Avenue,Renmark,SA,5341
United Chemists Renmark,Renmark Square 227 Renmark Avenue,Renmark,SA,5341
TerryWhite Chemmart Old Reynella,"Shop 13-14 , 211 Old South Road",Reynella,SA,5161
Chemist Warehouse Modbury,Sh 3 Pelican Plaza 1007 North East Rd,Ridgehaven,SA,5097
Star Discount Chemist Croydon,Croydon Chemmart191 South Rd,Ridleyton,SA,5008
Riverton Pharmacy,26 Torrens Road,Riverton,SA,5412
Star Discount Chemist Rostrevor,1/161 St Bernards Road,Rostrevor,SA,5073
United Chemists Royal Park,1202 Old Port Rd,Royal Park,SA,5014
Chemist Warehouse Parabanks SC Salisbury,Shop 7 to 9 Parabanks SC68 John Street,Salisbury,SA,5108
Chemist Warehouse Salisbury,"Ground Floor, 85A John Street",Salisbury,SA,5108
John Street Pharmacy,18 John Street,Salisbury,SA,5108
National Pharmacies Salisbury,85 John Street,Salisbury,SA,5108
Salisbury Discount Pharmacy,Shop 1/7-9 Gawler Street,Salisbury,SA,5108
Europa TLC Pharmacy,2/287 Salibury Highway,Salisbury Downs,SA,5108
Star Discount Chemist Hollywood,45-47 Winzor St,Salisbury Downs,SA,5108
Star Discount Chemist Salisbury East,"Shop 13-15, Manor Farm Sopping Centre 56-63 Northbri Av",Salisbury East,SA,5109
Salisbury North Pharmacists Advice,141 Whites Rd,Salisbury North,SA,5108
Whites Road Pharmacy,133 Whites Road,Salisbury north,SA,5108
Chemist Warehouse Saints Shopping Centre Salisbury Plain,"Shop T03, Saints Shopping Centre, 83 Saints Road",Salisbury Plain,SA,5109
Chemist King Seacliff,675 Brighton Road,Seacliff,SA,5049
Seacliff Park Terry White Chemmart,234 Seacombe Rd,Seacliff Park,SA,5049
Star Discount Chemist Marion,205B Sturt Rd,Seacombe Gardens,SA,5047
National Pharmacies Seaford,"Shop 46, 48 & 49 Seaford Shopping Centre Commercial Road",Seaford,SA,5169
Seaford Day-Night Chemist,Partof 238-240 Seaford Road,Seaford,SA,5169
TerryWhite Chemmart Seaford Shopping Centre,"Shop 7-9 Seaford Shopping Centre, Commercial Road",Seaford,SA,5169
SuperChem Seaford Pharmacy,1/44 Robinson Road,Seaford Heights,SA,5169
Chemist Warehouse Seaford Meadows,Shop 10 Seaford Meadows Shopping Centre 1 Prow Drive,Seaford Meadows,SA,5167
Seaford Medical Centre Amcal Pharmacy,672-680 Grand Blvd,Seaford Meadows,SA,5169
Seaton North Pharmacy,228 Tapleys Hill Road,Seaton,SA,5023
Chemist Warehouse Sefton Plaza,"Shop 8-10, Sefton Plaza 225-239 Main North Road",Sefton Park,SA,5083
Craig Roberts Pharmacy,126 Semaphore Rd,Semaphore,SA,5019
National Pharmacies Semaphore,103 Semaphore Road,Semaphore,SA,5019
Chemist Warehouse Munno Para,"Shops 7-10 Munno Para Shopping City, 600 Main North Road,",Smithfield,SA,5114
Chemist Warehouse Smithfield,"Shop 93-94, Munno Para Shopping City, 600 Main North Road,",Smithfield,SA,5114
Munno Para Medical Centre Amcal Pharmacy,"1, 14 Anderson Walk",Smithfield,SA,5114
South Plympton Terry White Chemmart,531 Marion Road,South Plympton,SA,5038
Terry White Chemmart St Agnes,"Shop 18,19 St Agnes Shopping Centre 1244 North East Road",St Agnes,SA,5097
Amcal St Clair Pharmacy,"Shop 6, St Clair Shopping Centre 40 Cheltenham Parade",St Clair,SA,5011
Stansbury Pharmacy,1 St. Vincent Street,Stansbury,SA,5582
DASSA - THN Wholesaler,91 Magill Road,Stepney,SA,5069
Priceline Pharmacy The Avenues,"Shop 6, Avenues Shopping Centre Payneham Rd",Stepney,SA,5069
TerryWhite Chemmart Stepney,3/26 Payneham Road,Stepney,SA,5069
DASSA Central,91 Magill Rd,Stepney,SA,5069
Stirling Day Night Pharmacy,21 Mount Barker Road,Stirling,SA,5152
The Green Dispensary Stirling,28 Mt Barker Road,Stirling,SA,5152
Strathalbyn Village Pharmacy,"Shop 1/10 Braemar Drive,",Strathalbyn,SA,5255
Wizard Pharmacy Strathalbyn,"Shops 2-3, 10 Dawson St",Strathalbyn,SA,5255
Surrey Downs Day Night Pharmacy,"Shop 17, 501 Golden Grove Road",Surrey Downs,SA,5126
Tanunda Pharmacy,117 Murray St,Tanunda,SA,5352
National Pharmacies Mitcham,109 Belair Road,Torrens Park,SA,5062
Priceline Pharmacy Mitcham,"Mitcham Square Shopping Centre, Shop 29, 119 Belair Road",Torrens Park,SA,5062
Chemist Warehouse Torrensville,156 Henley Beach Rd,Torrensville,SA,5031
Direct Chemist Outlet Torrensville,"SHOP 9-10, Brickworks Marketplace, 2 Ashwin Pde",Torrensville,SA,5031
TerryWhite Chemmart Mile End,202 Henley Beach Road,Torrensville,SA,5031
Tranmere Pharmacy,152 Glynburn Road,Tranmere,SA,5073
Trinity Gardens Pharmacy,214 Portrush Road,Trinity Gardens,SA,5068
Tiffany Hibble Pharmacy Pty Ltd,10 North Terrace,Tumby Bay,SA,5605
Haddad Pharmacy Group - Unley,160 Unley Road,Unley,SA,5061
National Pharmacies Victor Harbor,64 Ocean Road,Victor Harbor,SA,5211
Victor Harbor Terrywhite Chemmart,"Victor Central Shopping Centre, Torrens Street",Victor Harbor,SA,5211
Virginia Discount Chemist,"Shop 14 & 14a, 18 Old Port Wakefield Road",Virginia,SA,5120
Waikerie pharmacy,27 McCoy St,Waikerie,SA,5330
Walkerville TerryWhite Chemmart,Shop 10/104 Walkerville Terrace,Walkerville,SA,5081
Newbery Chemists Wallaroo,Shop B2 Owen Terrace,Wallaroo,SA,5556
Advantage Pharmacy Warradale,109-111a Diagonal Rd,Warradale,SA,5046
Dunrobin Road Pharmacy,4/241 Diagonal Road,Warradale,SA,5046
Chemist King Wayville,43-51 Goodwood Rd,Wayville,SA,5034
Chemist King Welland,53 Grange Road,Welland,SA,5007
Star Discount Chemist Welland,"Shops 14-15 Welland Plaza, 522 Port Rd",Welland,SA,5007
Chemist Warehouse Harbourtown,SHOP T115 727 Tapleys Hill Rd,West Beach,SA,5950
Terry White Chemmart West Beach,695a Burbridge Road,West Beach,SA,5024
Better Health Pharmacy West Lakes,Shop 312/313 West Lakes Mall 111 West Lakes Boulevard,West Lakes,SA,5021
National Pharmacies West Lakes,149 Brebner Drive,West Lakes,SA,5021
TerryWhite Chemmart Woodlakes Day/Night Compounding Pharmacy,24 Frederick Road,West Lakes,SA,5021
West Lakes Pharmacy,Shop 18 West Lakes Mall,West Lakes,SA,5021
TerryWhite Chemmart West Lakes Shore,Shop 5 Bartley Tce Shopping Centre Bartley Tce,West Lakes Shore,SA,5020
TerryWhite Chemmart Essington Lewis,94 Essington Lewis Avenue,Whyalla,SA,5600
Priceline Pharmacy Norrie Avenue,55-59 Norrie Avenue,Whyalla Norrie,SA,5608
TerryWhite Chemmart Westland,Shop 45 Westland Shopping Centre,Whyalla Norrie,SA,5608
Whyalla Pharmacy,24-26 Ekblom Street,Whyalla Norrie,SA,5608
TerryWhite Chemmart Woodcroft Plaza,5/217 Pimpala RoadWoodcroft Market Plaza,Woodcroft,SA,5162
Terrywhite Chemmart Woodcroft Town Centre,"Shop 36, Woodcroft Town Centre MallCnr Bains & Panalatinga Rd",Woodcroft,SA,5162
Woodside Pharmacy,48 Onkaparinga Valley Road,Woodside,SA,5244
Chemist Warehouse Woodville Gardens,36 Hanson Road,Woodville Gardens,SA,5012
Chemistsavers Westwood,58-60 Hanson Road,Woodville Gardens,SA,5012
Woodville Gardens Pharmacy,Shop 2/22 Hanson Rd,Woodville Gardens,SA,5013
Woodville Pharmacy (K.T.Z Toumazos & M. Miltiadous),864 Port Road,Woodville South,SA,5011
Wudinna Family Pharmacy,62  Ballantyne Street,Wudinna,SA,5652
TerryWhite Chemmart Wynn Vale,Shop 1 Sunnybrook Shopping Centre 2 Sunnybrook Drive,Wynn Vale,SA,5127
United Chemists Yorketown,36 Warooka Road,Yorketown,SA,5576
