<?xml version="1.0" encoding="UTF-8" standalone="no"?>
<!DOCTYPE svg PUBLIC "-//W3C//DTD SVG 1.1//EN" "http://www.w3.org/Graphics/SVG/1.1/DTD/svg11.dtd">
<svg width="100%" height="100%" viewBox="0 0 930 253" version="1.1" xmlns="http://www.w3.org/2000/svg" xmlns:xlink="http://www.w3.org/1999/xlink" xml:space="preserve" xmlns:serif="http://www.serif.com/" style="fill-rule:evenodd;clip-rule:evenodd;">
    <g>
        <g>
            <path d="M187.577,68.916C188.687,67.134 190.275,65.921 192.353,65.275C194.452,64.598 197.082,64.265 200.239,64.265C203.39,64.265 205.9,64.546 207.76,65.114C209.645,65.65 211.088,66.312 212.088,67.093C213.083,67.848 213.802,68.994 214.229,70.53C214.906,72.421 215.244,75.291 215.244,79.145L215.244,129.178C215.244,143.761 210.713,157.017 201.656,168.935C197.234,174.57 191.541,179.128 184.588,182.607C177.629,186.081 169.915,187.82 161.452,187.82C153.014,187.82 145.342,186.055 138.441,182.523C131.534,178.992 125.941,174.351 121.654,168.612C112.701,156.908 108.227,143.658 108.227,128.854L108.227,78.985C108.227,76.344 108.31,74.391 108.471,73.12C108.633,71.854 109.159,70.396 110.044,68.755C110.935,67.083 112.419,65.922 114.497,65.276C116.596,64.599 119.414,64.265 122.951,64.265C126.482,64.265 129.3,64.599 131.399,65.276C133.503,65.922 134.946,67.068 135.727,68.713C137.05,71.245 137.711,74.724 137.711,79.146L137.711,128.856C137.711,135.596 139.368,141.997 142.686,148.065C144.331,151.164 146.811,153.659 150.129,155.55C153.441,157.409 157.368,158.336 161.894,158.336C169.957,158.336 175.973,155.357 179.936,149.399C183.926,143.44 185.921,136.539 185.921,128.695L185.921,78.016C185.921,73.703 186.473,70.667 187.577,68.917L187.577,68.916Z" style="fill:none;fill-rule:nonzero;stroke:rgb(2,48,71);stroke-width:14.5px;"/>
            <path d="M187.553,68.894C188.662,67.118 190.266,65.904 192.365,65.248C194.459,64.581 197.079,64.248 200.22,64.248C203.371,64.248 205.886,64.529 207.761,65.081C209.647,65.623 211.084,66.284 212.074,67.06C213.074,67.842 213.792,68.998 214.24,70.54C214.891,72.415 215.219,75.29 215.219,79.165L215.219,129.186C215.219,143.759 210.688,157.009 201.635,168.935C197.219,174.56 191.531,179.118 184.573,182.602C177.625,186.071 169.927,187.81 161.469,187.81C153.021,187.81 145.349,186.045 138.447,182.519C131.541,178.993 125.937,174.352 121.635,168.601C112.688,156.893 108.219,143.643 108.219,128.852L108.219,78.997C108.219,76.346 108.303,74.388 108.469,73.122C108.636,71.846 109.157,70.383 110.032,68.726C110.917,67.06 112.412,65.903 114.511,65.247C116.605,64.581 119.417,64.247 122.949,64.247C126.49,64.247 129.308,64.581 131.407,65.247C133.501,65.903 134.938,67.06 135.72,68.726C137.037,71.268 137.699,74.747 137.699,79.164L137.699,128.852C137.699,135.591 139.355,141.993 142.678,148.06C144.329,151.159 146.808,153.643 150.115,155.518C153.433,157.393 157.355,158.331 161.886,158.331C169.954,158.331 175.974,155.352 179.949,149.393C183.918,143.425 185.907,136.518 185.907,128.685L185.907,77.997C185.907,73.695 186.454,70.659 187.553,68.893L187.553,68.894Z" style="fill:rgb(2,48,71);fill-rule:nonzero;"/>
            <path d="M109.248,67.406C110.352,65.625 111.946,64.411 114.019,63.765C116.123,63.088 118.753,62.75 121.909,62.75C125.06,62.75 127.571,63.036 129.43,63.604C131.316,64.14 132.759,64.802 133.759,65.583C134.753,66.338 135.472,67.484 135.899,69.021C136.576,70.911 136.915,73.781 136.915,77.636L136.915,127.674C136.915,142.257 132.384,155.512 123.321,167.429C118.899,173.064 113.211,177.622 106.253,181.101C99.294,184.58 91.586,186.32 83.118,186.32C74.68,186.32 67.008,184.554 60.102,181.023C53.2,177.486 47.606,172.851 43.32,167.106C34.367,155.403 29.887,142.151 29.887,127.344L29.887,77.474C29.887,74.833 29.971,72.88 30.132,71.609C30.294,70.343 30.82,68.885 31.71,67.239C32.601,65.572 34.08,64.411 36.158,63.765C38.262,63.088 41.08,62.749 44.612,62.749C48.143,62.749 50.961,63.088 53.065,63.765C55.169,64.411 56.612,65.556 57.393,67.202C58.716,69.734 59.378,73.213 59.378,77.635L59.378,127.345C59.378,134.09 61.034,140.491 64.351,146.559C65.997,149.663 68.477,152.153 71.794,154.043C75.112,155.903 79.034,156.835 83.565,156.835C91.628,156.835 97.638,153.856 101.602,147.892C105.592,141.934 107.586,135.032 107.586,127.183L107.586,76.506C107.586,72.194 108.144,69.157 109.248,67.407L109.248,67.406Z" style="fill:none;fill-rule:nonzero;stroke:rgb(2,48,71);stroke-width:14.5px;"/>
            <path d="M109.236,67.379C110.345,65.619 111.949,64.4 114.048,63.733C116.142,63.067 118.762,62.733 121.902,62.733C125.053,62.733 127.569,63.014 129.444,63.567C131.319,64.124 132.756,64.79 133.756,65.567C134.756,66.332 135.47,67.483 135.902,69.025C136.569,70.916 136.902,73.791 136.902,77.65L136.902,127.671C136.902,142.255 132.371,155.515 123.318,167.442C118.902,173.067 113.214,177.624 106.256,181.109C99.297,184.577 91.589,186.317 83.13,186.317C74.682,186.317 67.01,184.551 60.109,181.025C53.203,177.484 47.598,172.848 43.297,167.108C34.349,155.4 29.881,142.149 29.881,127.359L29.881,77.484C29.881,74.833 29.964,72.875 30.131,71.609C30.298,70.333 30.818,68.869 31.693,67.213C32.579,65.562 34.074,64.401 36.173,63.734C38.266,63.067 41.079,62.734 44.61,62.734C48.152,62.734 50.969,63.067 53.068,63.734C55.162,64.401 56.6,65.562 57.381,67.213C58.714,69.755 59.381,73.234 59.381,77.651L59.381,127.359C59.381,134.098 61.032,140.499 64.339,146.567C65.99,149.665 68.47,152.15 71.777,154.025C75.095,155.9 79.027,156.837 83.569,156.837C91.621,156.837 97.637,153.858 101.61,147.9C105.594,141.931 107.589,135.025 107.589,127.192L107.589,76.484C107.589,72.182 108.136,69.145 109.235,67.38L109.236,67.379Z" style="fill:rgb(2,48,71);fill-rule:nonzero;"/>
        </g>
        <g>
            <path d="M233.508,128.002C233.508,108.002 240.508,91.502 254.508,78.502C268.508,65.502 284.508,59.002 302.508,59.002C320.508,59.002 336.426,65.46 350.258,78.376C364.09,91.293 371.007,107.751 371.007,127.751C371.007,141.584 367.424,153.876 360.257,164.626C353.09,175.375 344.382,183.292 334.132,188.375C323.881,193.458 313.257,196 302.257,196C291.257,196 280.59,193.292 270.257,187.875C259.924,182.458 251.216,174.459 244.132,163.875C237.048,153.291 233.506,141.334 233.506,128L233.508,128.002ZM285.759,145.876C291.092,149.96 296.509,152.001 302.01,152.001C307.51,152.001 313.01,149.918 318.51,145.751C324.01,141.585 326.76,135.418 326.76,127.251C326.76,119.085 324.176,113.001 319.01,109.001C313.843,105.001 308.26,103.001 302.26,103.001C296.261,103.001 290.677,105.084 285.511,109.251C280.345,113.417 277.761,119.543 277.761,127.625C277.761,135.708 280.428,141.792 285.761,145.876L285.759,145.876Z" style="fill:rgb(2,48,71);fill-rule:nonzero;"/>
        </g>
        <g>
            <path d="M383.508,128.002C383.508,108.002 390.508,91.502 404.508,78.502C418.508,65.502 434.508,59.002 452.508,59.002C470.508,59.002 486.426,65.46 500.258,78.376C514.09,91.293 521.007,107.751 521.007,127.751C521.007,141.584 517.424,153.876 510.257,164.626C503.09,175.375 494.382,183.292 484.132,188.375C473.881,193.458 463.257,196 452.257,196C441.257,196 430.59,193.292 420.257,187.875C409.924,182.458 401.216,174.459 394.132,163.875C387.048,153.291 383.506,141.334 383.506,128L383.508,128.002ZM435.759,145.876C441.092,149.96 446.509,152.001 452.01,152.001C457.51,152.001 463.01,149.918 468.51,145.751C474.01,141.585 476.76,135.418 476.76,127.251C476.76,119.085 474.176,113.001 469.01,109.001C463.843,105.001 458.26,103.001 452.26,103.001C446.261,103.001 440.677,105.084 435.511,109.251C430.345,113.417 427.761,119.543 427.761,127.625C427.761,135.708 430.428,141.792 435.761,145.876L435.759,145.876Z" style="fill:rgb(2,48,71);fill-rule:nonzero;"/>
        </g>
        <g>
            <path d="M614.258,62.251C625.758,62.251 632.509,65.418 634.509,71.751C635.509,74.918 636.009,79.084 636.009,84.251C636.009,89.418 635.467,93.543 634.384,96.626C633.3,99.709 631.592,101.918 629.259,103.251C625.759,105.251 620.675,106.251 614.008,106.251L598.008,105.251L598.008,172.251C598.008,178.584 597.216,183.293 595.633,186.376C594.05,189.46 591.633,191.501 588.383,192.501C585.133,193.501 580.925,194.001 575.758,194.001C570.591,194.001 566.466,193.46 563.383,192.376C560.3,191.293 558.091,189.543 556.758,187.126C555.425,184.71 554.633,182.501 554.383,180.501C554.133,178.501 554.008,175.585 554.008,171.751L554.008,105.501L545.008,105.501C540.675,105.167 537.591,104.167 535.758,102.501C532.591,99.334 531.008,93.251 531.008,84.25C531.008,70.583 535.925,63.75 545.757,63.75L554.007,63.75L554.007,50.5C554.007,37.667 558.591,26.041 567.757,15.625C576.923,5.209 590.173,0 607.506,0C611.339,0 614.214,0.125 616.131,0.375C618.048,0.625 620.256,1.417 622.756,2.75C627.256,4.917 629.506,11.333 629.506,22.001C629.506,30.001 628.09,35.75 625.256,39.251C622.923,41.918 619.256,43.418 614.256,43.751L607.256,43.751C601.09,43.751 598.006,45.835 598.006,50.001L598.006,63.751L614.258,62.251Z" style="fill:rgb(2,48,71);fill-rule:nonzero;"/>
        </g>
        <g>
            <path d="M772.252,63.5C782.085,67.834 787.001,73.084 787.001,79.25C787.001,82.25 786.334,85.083 785.001,87.75C783.668,90.416 783.001,91.833 783.001,92L717.501,238.506C716.168,241.673 715.042,244.09 714.126,245.756C713.209,247.423 711.751,249.006 709.751,250.506C707.751,252.006 705.251,252.756 702.251,252.756C699.251,252.756 694.834,251.506 689.001,249.006C679.168,244.673 674.252,239.506 674.252,233.506C674.252,229.506 682.252,210.424 698.252,176.256L648.502,92.506C645.169,87.006 643.502,82.923 643.502,80.256C643.502,74.923 648.002,69.59 657.002,64.256C662.669,60.923 667.086,59.256 670.252,59.256C673.419,59.256 676.002,59.923 678.002,61.256C680.002,62.59 681.461,63.965 682.377,65.381C683.294,66.798 687.877,74.548 696.127,88.632C704.376,102.716 712.252,115.84 719.752,128.007C720.585,125.34 725.085,115.048 733.252,97.132C741.419,79.216 745.794,69.673 746.377,68.507C746.96,67.34 747.919,65.923 749.252,64.257C751.419,61.423 754.46,60.007 758.377,60.007C762.294,60.007 766.919,61.173 772.252,63.507L772.252,63.5Z" style="fill:rgb(2,48,71);fill-rule:nonzero;"/>
        </g>
        <g>
            <path d="M886.252,76.002C887.252,66.668 893.835,62.002 906.001,62.002C912.501,62.002 917.334,62.502 920.501,63.502C923.668,64.502 925.876,66.252 927.126,68.752C928.376,71.252 929.126,73.46 929.376,75.377C929.626,77.294 929.751,80.169 929.751,84.002L929.751,171.502C929.751,175.335 929.626,178.21 929.376,180.127C929.126,182.044 928.418,184.252 927.251,186.752C924.918,191.085 919.209,193.252 910.126,193.252C901.042,193.252 894.959,192.127 891.875,189.877C888.791,187.627 887,184.335 886.5,180.002C880.333,188.835 870.041,193.252 855.625,193.252C841.209,193.252 827.833,186.669 815.5,173.503C803.167,160.337 797,145.044 797,127.628C797,110.212 803.208,94.961 815.625,81.879C828.042,68.796 841.667,62.253 856.5,62.253C862.167,62.253 867.333,63.253 872,65.253C876.667,67.253 879.917,69.128 881.75,70.879C883.583,72.629 885.083,74.337 886.25,76.004L886.252,76.002ZM840.752,128.002C840.752,133.502 842.918,138.46 847.252,142.876C851.585,147.293 856.835,149.501 863.001,149.501C869.167,149.501 874.293,147.251 878.376,142.751C882.458,138.251 884.501,133.293 884.501,127.877C884.501,122.461 882.542,117.418 878.626,112.751C874.709,108.085 869.459,105.751 862.876,105.751C856.294,105.751 850.96,108.085 846.876,112.751C842.793,117.418 840.751,122.501 840.751,128.002L840.752,128.002Z" style="fill:rgb(2,48,71);fill-rule:nonzero;"/>
        </g>
    </g>
</svg>
